Time Periods:
8:00am-9:20am, Morning
9:40am-11:00am, Morning
11:20am-12:40pm, Mid-day
1:00pm-2:20pm, Mid-day
2:40pm-4:00pm, Mid-day
4:20pm-5:40pm, Evening
6:00pm-7:20pm, Evening

Time Between Periods:
20

Department:
Art

Location:
WIL, ROB

Courses Offered:
ARH 100, ARH 101, ARH 103, ARH 120
ARH 301, ARH 302, ARH 303, ARH 304
ARH 305, ARH 306, ARH 307, ARH 309
ARH 310, ARH 311, ARH 320, ARH 395
ARH 400, ARS 123, ARS 140, ARS 160
ARS 210, ARS 220, ARS 230, ARS 240
ARS 250, ARS 260, ARS 270, ARS 280
ARS 311, ARS 320, ARS 321, ARS 322
ARS 323, ARS 324, ARS 327, ARS 328
ARS 329, ARS 330, ARS 332, ARS 333
ARS 334, ARS 335, ARS 340, ARS 341
ARS 342, ARS 346, ARS 347, ARS 350
ARS 352, ARS 353, ARS 355, ARS 360
ARS 375, ARS 376, ARS 377, ARS 381
ARS 383, ARS 385, ARS 387, ARS 390
ARS 393, ARS 395, ARS 410, ARS 420
ARS 421, ARS 422, ARS 423, ARS 430
ARS 432, ARS 433, ARS 434, ARS 435
ARS 440, ARS 441, ARS 442, ARS 447
ARS 450, ARS 452, ARS 453, ARS 455
ARS 460, ARS 475, ARS 476, ARS 477
ARS 481, ARS 483, ARS 485, ARS 487
ARS 490, ARS 492, ARS 493, ARS 494
ARS 495

Classroom:
WIL 168, 27
WIL 215, 50
WIL 172, 25
ROB 406, 20
WIL 244, 18
WIL 237, 22
WIL 238, 22
WIL 201, 20
WIL 205, 20
WIL 228, 20
WIL 347, 18
WIL 355, 20
WIL 182, 20
WIL 309, 20
ROB 104, 20
WIL 104, 18

Classroom Preferences:
ARS 123, WIL 244
ARH 101, WIL 168
ARH 100, WIL 168

Faculty Assignments:
Jennie Couch, ARS 123 Enrollment: 15, ARS 260, Preference: Morning
Rossow Sonja, ARS 123, ARS 123, ARS 160 Enrollment: 25, Preference: None
Ellen Dempsey, ARS 140, ARS 160, ARS 240, Preference: None
Christopher Taylor, ARS 140, ARS 340, ARS 347, ARS 440, ARS 447, Preference: None
Jessie Whitehead, ARS 160, ARS 160, Preference: Mid-day
Nicole Harper, ARS 160, ARS 160, Preference: Evening
Robert Bean, ARS 160, ARS 260, Preference: Evening
Roxie Veasey, ARS 160, ARS 332, ARS 390, ARS 460, ARS 490, Preference: None
Elham Nikoo, ARS 220, ARS 220, ARS 329, ARS 425, ARS 426, Preference: None
Justin Clay, ARS 230, ARS 230, ARS 330, ARS 335, ARS 430, ARS 435, Preference: None
Jose Betancourt, ARS 250, ARS 353, ARS 355, ARS 453, ARS 455, ARS 492, Preference: None
Aynslee Smithee, ARS 270, ARS 375, ARS 475, Preference: None
Kathleen Baldwin, ARS 280, ARS 381, ARS 387, ARS 481, ARS 487, ARS 495, Preference: None
Vincent Argentina, ARS 311, ARS 325, ARS 390, ARS 395, ARS 492, ARS 494, ARS 495, Preference: None
Kathryn Johnson, ARS 376, ARS 476, ARS 494, ARS 494, Preference: None
Lillian Joyce, ARH 100, ARH 103, ARH 320, ARH 400, Preference: None
Karissa Bushman, ARH 100, ARH 100, ARH 103, ARH 400, Preference: None
Rachel Erwin, ARH 101, ARH 101, Preference: Evening
Laura Smith, ARH 101, ARH 309, ARH 310, Preference: None
David Stewart, ARH 400, Preference: Morning