Time Periods:
8:00am-9:20am, Morning
9:40am-11:00am, Morning
11:20am-12:40pm, Mid-day
1:00pm-2:20pm, Mid-day
2:40pm-4:00pm, Mid-day
4:20pm-5:40pm, Evening
6:00pm-7:20pm, Evening

Time Between Periods:
20

Department:
CS

Location:
OKT

Courses Offered:
CS 100, CS 102, CS 103, CS 104
CS 105, CS 121, CS 143, CS 214
CS 217, CS 221, CS 307, CS 308
CS 309, CS 317, CS 321, CS 325
CS 330, CS 347, CS 371, CS 390
CS 391, CS 392, CS 396, CS 397
CS 398, CS 403, CS 413, CS 424
CS 443, CS 445, CS 446, CS 447
CS 453, CS 454, CS 465, CS 470
CS 480, CS 485, CS 487, CS 488
CS 490, CS 495, CS 496, CS 497
CS 498, CS 499, CS 513, CS 517
CS 524, CS 526, CS 530, CS 543
CS 545, CS 546, CS 547, CS 548
CS 553, CS 554, CS 565, CS 570
CS 571, CS 580, CS 581, CS 582
CS 585, CS 588, CS 590, CS 595
CS 596, CS 597, CS 598, CS 600
CS 603, CS 613, CS 617, CS 630
CS 635, CS 640, CS 641, CS 642
CS 643, CS 646, CS 650, CS 652
CS 655, CS 656, CS 658, CS 666
CS 668, CS 670, CS 685, CS 686
CS 687, CS 690, CS 690, CS 692
CS 695, CS 696, CS 699, CS 703
CS 717, CS 730, CS 742, CS 790
CS 795, CS 796, CS 799

Classroom:
OKT N327, 45
OKT N155, 96
OKT N326, 39
OKT 101A, 50
OKT 218, 44
OKT N324, 50
OKT N308, 25
OKT S101, 30
OKT S104, 39
OKT N306, 26

Classroom Preferences:
CS 102, OKT N327
CS 105, OKT N155
CS 317, OKT N324
CS 347, OKT S101
CS 499, OKT N326

Faculty Assignments:
Danny Hardin, CS 100 Enrollment: 2po, CS 121, CS 121, Preference: None
Ajinkya Kulkarni, CS 102 Enrollment: 45, Preference: Morning
Evans Criswell, CS 102, Preference: Evening
Shanthakumar Areyur, CS 102, Preference: None
David Sayre, CS 102, Preference: None
Jacob Hauenstein, CS 102, Preference: None
Deepak Acharya, CS 102, Preference: None
Truong Tran, CS 103, Preference: None
Mikel Petty, CS 105, CS 105, CS 214, CS 595, Preference: None
Robert Preston, CS 121, CS 214, CS 309, Preference: Evening
Ramazan Aygun, CS 143, CS 687, Preference: Mid-day
Haeyong Chung, CS 143, CS 371, CS 495, CS 695, Preference: None
Charles McEniry, CS 214, Preference: None
Richard Coleman, CS 221, CS 221, CS 307, CS 499, Preference: None
Mary Allen, CS 221, CS 321, CS 390, CS 454, CS 554, Preference: None
Klaus Rheinfurth, CS 308, Preference: None
Sadish Sadasivam, CS 317, Preference: None
Julie McKinney-Young, CS 317, Preference: None
Huaming Zhang, CS 321, CS 617, CS 617, CS 696, Preference: None
Chao Peng, CS 347, CS 347, Preference: Evening
Timothy Newman, CS 413, CS 445, CS 545, Preference: None
Vineetha Menon, CS 413, CS 696, Preference: Morning
Harry Delugach, CS 424, CS 524, CS 650, CS 650, Preference: None
Mary Weisskopf, CS 424, CS 490, CS 524, Preference: None
Letha Etzkorn, CS 453, CS 485, CS 553, CS 585, CS 585, CS 695, Preference: None
Tathagata Mukherjee, CS 465, CS 565, Preference: Mid-day
Feng Zhu, CS 470, CS 485, CS 570, Preference: None
Joshua Jones, CS 480, CS 580, Preference: None
Thomson Rose, CS 487, Preference: Evening
Heggere Ranganath, CS 640, Preference: None
Andrew Cling, CS 695, Preference: None
