Time Periods:
8:00am-9:20am, Morning
9:40am-11:00am, Morning
11:20am-12:40pm, Mid-day
1:00pm-2:20pm, Mid-day
2:40pm-4:00pm, Mid-day
4:20pm-5:40pm, Evening
6:00pm-7:20pm, Evening

Time Between Periods:
20

Department:
Dart

Location:
WIL, ROB

Courses Offered:
DAR 100, DAR 101, DAR 103, DAR 120
DAR 301, DAR 302, DAR 303, DAR 304
DAR 305, DAR 306, DAR 307, DAR 309
DAR 310, DAR 311, DAR 320, DAR 395
DAR 400, DRS 123, DRS 140, DRS 160
DRS 210, DRS 220, DRS 230, DRS 240
DRS 250, DRS 260, DRS 270, DRS 280
DRS 311, DRS 320, DRS 321, DRS 322
DRS 323, DRS 324, DRS 327, DRS 328
DRS 329, DRS 330, DRS 332, DRS 333
DRS 334, DRS 335, DRS 340, DRS 341
DRS 342, DRS 346, DRS 347, DRS 350
DRS 352, DRS 353, DRS 355, DRS 360
DRS 375, DRS 376, DRS 377, DRS 381
DRS 383, DRS 385, DRS 387, DRS 390
DRS 393, DRS 395, DRS 410, DRS 420
DRS 421, DRS 422, DRS 423, DRS 430
DRS 432, DRS 433, DRS 434, DRS 435
DRS 440, DRS 441, DRS 442, DRS 447
DRS 450, DRS 452, DRS 453, DRS 455
DRS 460, DRS 475, DRS 476, DRS 477
DRS 481, DRS 483, DRS 485, DRS 487
DRS 490, DRS 492, DRS 493, DRS 494
DRS 495

Classroom:
WIL 168, 27
WIL 215, 50
WIL 172, 25
ROB 406, 20
WIL 244, 18
WIL 237, 22
WIL 238, 22
WIL 201, 20
WIL 205, 20
WIL 228, 20
WIL 347, 18
WIL 355, 20
WIL 182, 20
WIL 309, 20
ROB 104, 20
WIL 104, 18

Classroom Preferences:
DRS 123, WIL 244
DAR 101, WIL 168
DAR 100, WIL 168

Faculty Assignments:
dJennie Couch, DRS 123 Enrollment: 15, DRS 260, Preference: Morning
dRossow Sonja, DRS 123, DRS 123, DRS 160 Enrollment: 25, Preference: None
dEllen Dempsey, DRS 140, DRS 160, DRS 240, Preference: None
dChristopher Taylor, DRS 140, DRS 340, DRS 347, DRS 440, DRS 447, Preference: None
dJessie Whitehead, DRS 160, DRS 160, Preference: Mid-day
dNicole Harper, DRS 160, DRS 160, Preference: Evening
dRobert Bean, DRS 160, DRS 260, Preference: Evening
dRoxie Veasey, DRS 160, DRS 332, DRS 390, DRS 460, DRS 490, Preference: None
dElham Nikoo, DRS 220, DRS 220, DRS 329, DRS 425, DRS 426, Preference: None
dJustin Clay, DRS 230, DRS 230, DRS 330, DRS 335, DRS 430, DRS 435, Preference: None
dJose Betancourt, DRS 250, DRS 353, DRS 355, DRS 453, DRS 455, DRS 492, Preference: None
dAynslee Smithee, DRS 270, DRS 375, DRS 475, Preference: None
dKathleen Baldwin, DRS 280, DRS 381, DRS 387, DRS 481, DRS 487, DRS 495, Preference: None
dVincent Argentina, DRS 311, DRS 325, DRS 390, DRS 395, DRS 492, DRS 494, DRS 495, Preference: None
dKathryn Johnson, DRS 376, DRS 476, DRS 494, DRS 494, Preference: None
dLillian Joyce, DAR 100, DAR 103, DAR 320, DAR 400, Preference: None
dKarissa Bushman, DAR 100, DAR 100, DAR 103, DAR 400, Preference: None
dRachel Erwin, DAR 101, DAR 101, Preference: Evening
dLaura Smith, DAR 101, DAR 309, DAR 310, Preference: None
dDavid Stewart, DAR 400, Preference: Morning